…
### The best tuning configuration for the best r-squared are: min\_n: 12 & mtry: 6. The best configuration for min\_n and mtry for r-squared and rmse are the same. These really seems to be the best configuration for our model.

``` r
collect_metrics(tune_rf2) 
```

    ## # A tibble: 30 x 8
    ##     mtry min_n .metric .estimator  mean     n std_err .config
    ##    <int> <int> <chr>   <chr>      <dbl> <int>   <dbl> <chr>  
    ##  1     6    11 rmse    standard   0.739    15 0.00972 Model01
    ##  2     6    11 rsq     standard   0.440    15 0.00781 Model01
    ##  3     6    12 rmse    standard   0.739    15 0.00978 Model02
    ##  4     6    12 rsq     standard   0.440    15 0.00773 Model02
    ##  5     6    13 rmse    standard   0.739    15 0.00948 Model03
    ##  6     6    13 rsq     standard   0.440    15 0.00762 Model03
    ##  7     6    14 rmse    standard   0.739    15 0.00947 Model04
    ##  8     6    14 rsq     standard   0.440    15 0.00781 Model04
    ##  9     6    15 rmse    standard   0.740    15 0.00962 Model05
    ## 10     6    15 rsq     standard   0.439    15 0.00783 Model05
    ## # ... with 20 more rows
…
### Get test set performance

``` r
predicted_vals1 <- predict(rf_final_model1,
        new_data = bake(red_wine_prepped, new_data = red_wine_testing))

original_quality <- bake(red_wine_prepped, new_data = red_wine_testing) %>%
  select(quality)


predicted_vals1
```

    ## # A tibble: 399 x 1
    ##      .pred
    ##      <dbl>
    ##  1 -0.505 
    ##  2 -0.858 
    ##  3 -0.505 
    ##  4 -0.474 
    ##  5 -0.399 
    ##  6 -0.338 
    ##  7 -0.779 
    ##  8 -0.507 
    ##  9 -0.108 
    ## 10 -0.0600
    ## # ... with 389 more rows
…
### The best tuning configuration for the best r-squared are: min\_n: 12 & mtry: 6. Same for the standardized model.

``` r
collect_metrics(tune_rf4) 
```

    ## # A tibble: 30 x 8
    ##     mtry min_n .metric .estimator  mean     n std_err .config
    ##    <int> <int> <chr>   <chr>      <dbl> <int>   <dbl> <chr>  
    ##  1     6    11 rmse    standard   0.600    15 0.00612 Model01
    ##  2     6    11 rsq     standard   0.440    15 0.00779 Model01
    ##  3     6    12 rmse    standard   0.600    15 0.00613 Model02
    ##  4     6    12 rsq     standard   0.440    15 0.00780 Model02
    ##  5     6    13 rmse    standard   0.600    15 0.00593 Model03
    ##  6     6    13 rsq     standard   0.440    15 0.00764 Model03
    ##  7     6    14 rmse    standard   0.600    15 0.00601 Model04
    ##  8     6    14 rsq     standard   0.440    15 0.00787 Model04
    ##  9     6    15 rmse    standard   0.600    15 0.00600 Model05
    ## 10     6    15 rsq     standard   0.439    15 0.00780 Model05
    ## # ... with 20 more rows
…
### Get test set performance of the non-standardized dataset

``` r
predicted_vals2 <- predict(rf_final_model2,
                           new_data = bake(red_wine_prepped2, new_data = red_wine_testing))

original_quality2 <- bake(red_wine_prepped2, new_data = red_wine_testing) %>%
  select(quality)


predicted_vals2
```

    ## # A tibble: 399 x 1
    ##    .pred
    ##    <dbl>
    ##  1  5.23
    ##  2  4.95
    ##  3  5.23
    ##  4  5.26
    ##  5  5.33
    ##  6  5.36
    ##  7  5.01
    ##  8  5.23
    ##  9  5.56
    ## 10  5.60
    ## # ... with 389 more rows
…
